…
If you build your class using the tools provided by the vctrs package, [ will gain this behaviour automatically. You will only need to provide your own [ method if you use attributes that depend on the data or want non-standard subsetting behaviour. 

#13.6 Exercises

1. How does [.Date support subclasses? How does it fail to support subclasses?

```r
s3_methods_class("Date")
```

```
## # A tibble: 46 × 4
##    generic class visible source             
##    <chr>   <chr> <lgl>   <chr>              
##  1 -       Date  TRUE    base               
##  2 !=      Date  FALSE   registered S3method
##  3 [       Date  TRUE    base               
##  4 [[      Date  TRUE    base               
##  5 [<-     Date  TRUE    base               
##  6 +       Date  TRUE    base               
##  7 <       Date  FALSE   registered S3method
##  8 <=      Date  FALSE   registered S3method
##  9 ==      Date  FALSE   registered S3method
## 10 >       Date  FALSE   registered S3method
## # … with 36 more rows
```
…
```r
s3_methods_class("POSIXlt")
```

```
## # A tibble: 29 × 4
##    generic       class   visible source
##    <chr>         <chr>   <lgl>   <chr> 
##  1 [             POSIXlt TRUE    base  
##  2 [[            POSIXlt TRUE    base  
##  3 [[<-          POSIXlt TRUE    base  
##  4 [<-           POSIXlt TRUE    base  
##  5 anyNA         POSIXlt TRUE    base  
##  6 as.data.frame POSIXlt TRUE    base  
##  7 as.Date       POSIXlt TRUE    base  
##  8 as.double     POSIXlt TRUE    base  
##  9 as.list       POSIXlt TRUE    base  
## 10 as.matrix     POSIXlt TRUE    base  
## # … with 19 more rows
```
…
